{
  "memoryReservation": 352,
  "memory": 384,
  "portMappings": [{
    "containerPort": 5000,
    "protocol": "tcp"
  }],
  "environment": [{
      "name": "ASPNETCORE_ENVIRONMENT",
      "value": "Development"
    },
    {
      "name": " LOG_FORMAT",
      "value": "Debug"
    },
    {
      "name": "CONFIGURATION_URL",
      "value": "http://configuration:5000"
    },
    {
      "name": "CONFIGURATION_NAME",
      "value": "document-generator"
    },
    {
      "name": "EVENTHUB_URL",
      "value": "http://eventhub:5000"
    },
    {
      "name": "NATS_URL",
      "value": "nats://nats:4222"
    },
    {
      "name": "TENANT_URL",
      "value": "http://tenant:5000"
    },
    {
      "name": "SECRET_KEY",
      "value": "UzFnbjFuZz1zM2NyM3Q="
    }
  ]
}
