{
  "memoryReservation": 370,
  "memory": 384,
  "portMappings": [{
    "containerPort": 5000,
    "protocol": "tcp"
  }],
  "environment": [{
      "name": "ASPNETCORE_ENVIRONMENT",
      "value": "Development"
    },
    {
      "name": "TOWERDATA_NATS_URL",
      "value": "${NATS_URL}"
    },
    {
      "name": "TOWERDATA_CONFIGURATION_HOST",
      "value": "configuration"
    },
    {
      "name": "TOWERDATA_CONFIGURATION_PORT",
      "value": "5000"
    },
    {
      "name": "TOWERDATA_EVENTHUB_HOST",
      "value": "eventhub"
    },
    {
      "name": "TOWERDATA_EVENTHUB_PORT",
      "value": "5000"
    },
    {
      "name": "TOWERDATA_TENANT_HOST",
      "value": "tenant"
    },
    {
      "name": "TOWERDATA_TENANT_PORT",
      "value": "5000"
    },
    {
      "name": "TOWERDATA_TOKEN_ISSUER",
      "value": "towerdata"
    },
    {
      "name": "TOWERDATA_LOOKUPSERVICE_HOST",
      "value": "lookup-service"
    },
    {
      "name": "TOWERDATA_LOOKUPSERVICE_PORT",
      "value": "5000"
    },
	{
      "name": "SECRET_KEY",
      "value": "UzFnbjFuZz1zM2NyM3Q="
    }
  ]
}
