{
  "memoryReservation": 1000,
  "memory": 1024,
  "portMappings": [{
    "containerPort": 80,
    "protocol": "tcp"
  }],
  "environment": [{
      "name": "PORT",
      "value": "80"
    },
    {
      "name": "UPLINK_ENDPOINT",
      "value": "${WORKFLOW_URL}"
    },
    {
      "name": "SECRET_KEY",
      "value": "UzFnbjFuZz1zM2NyM3Q="
    },
    {
      "name": "DEFAULT_TOKEN",
      "value": "${PORTAL_TOKEN}"
    },
    {
      "name": "SHOW_VERSION_INFO",
      "value": "true"
    },
    {
      "name": "BORROWER_PORTAL_URL",
      "value": "${BORROWER_PORTAL_URL}"
    },
    {
      "name": "ORBIT_IDENTITY",
      "value": "${ORBIT_IDENTITY_URL}"
    },
    {
      "name": "ORBIT_IDENTITY_CLIENT",
      "value": "credit-exchange"
    },
    {
      "name": "ORBIT_IDENTITY_USER",
      "value": "borrower@portal.com"
    },
    {
      "name": "ORBIT_IDENTITY_PASSWORD",
      "value": "Afyk22@31fDfs"
    },
    {
      "name": "ORBIT_IDENTITY_REALM",
      "value": "borrower-portal"
    }
  ]
}
