{
  "Version": "2012-10-17",
  "Statement": [
    {
      "Sid": "allowAPIsForBashion",
      "Effect": "Allow",
      "Action": [
        "ecr:GetAuthorizationToken",
  			"ecr:BatchCheckLayerAvailability",
  			"ecr:GetDownloadUrlForLayer",
  			"ecr:GetRepositoryPolicy",
  			"ecr:DescribeRepositories",
  			"ecr:ListImages",
  			"ecr:DescribeImages",
  			"ecr:BatchGetImage",
  			"ecr:InitiateLayerUpload",
  			"ecr:UploadLayerPart",
  			"ecr:CompleteLayerUpload",
  			"ecr:PutImage"
      ],
      "Resource": [
        "*"
      ]
    }
  ]
}
